{
    "KPlugin": {
        "Authors": [
            {
                "Email": "gicalucejo@gmail.com",
                "Name": "jomada"
            }
        ],
        "Category": "",
        "Description": "Lisa for Plasma",
        "EnabledByDefault": true,
        "Id": "Lisa",
        "License": "LGPL",
        "Name": "Lisa",
        "Version": "2.3",
        "Website": "https://seduccionlinux.wordpress.com"
    },
    "X-Plasma-API": "5.0"
}
